module gitlab.com/scpcorp/webwallet

go 1.17

require (
	github.com/georgemcarlson/lorca v0.1.15
	github.com/julienschmidt/httprouter v1.3.0
	github.com/ncruces/zenity v0.8.9
	gitlab.com/NebulousLabs/entropy-mnemonics v0.0.0-20181018051301-7532f67e3500
	gitlab.com/NebulousLabs/errors v0.0.0-20200929122200-06c536cf6975
	gitlab.com/NebulousLabs/fastrand v0.0.0-20181126182046-603482d69e40
	gitlab.com/scpcorp/ScPrime v1.8.3
)

require (
	github.com/aead/chacha20 v0.0.0-20180709150244-8b13a72661da // indirect
	github.com/akavel/rsrc v0.10.2 // indirect
	github.com/davecgh/go-spew v1.1.1 // indirect
	github.com/dchest/jsmin v0.0.0-20220218165748-59f39799265f // indirect
	github.com/dchest/threefish v0.0.0-20120919164726-3ecf4c494abf // indirect
	github.com/getkin/kin-openapi v0.116.0 // indirect
	github.com/go-openapi/jsonpointer v0.19.6 // indirect
	github.com/go-openapi/swag v0.22.3 // indirect
	github.com/go-sql-driver/mysql v1.7.1 // indirect
	github.com/golang/snappy v0.0.4 // indirect
	github.com/gorilla/websocket v1.5.0 // indirect
	github.com/hanwen/go-fuse/v2 v2.3.0 // indirect
	github.com/hashicorp/golang-lru v0.5.4 // indirect
	github.com/invopop/yaml v0.2.0 // indirect
	github.com/josephspurrier/goversioninfo v1.4.0 // indirect
	github.com/josharian/intern v1.0.0 // indirect
	github.com/klauspost/cpuid/v2 v2.2.4 // indirect
	github.com/klauspost/reedsolomon v1.11.7 // indirect
	github.com/mailru/easyjson v0.7.7 // indirect
	github.com/mohae/deepcopy v0.0.0-20170929034955-c48cc78d4826 // indirect
	github.com/perimeterx/marshmallow v1.1.4 // indirect
	github.com/petermattis/goid v0.0.0-20230516130339-69c5d00fc54d // indirect
	github.com/pmezard/go-difflib v1.0.0 // indirect
	github.com/randall77/makefat v0.0.0-20210315173500-7ddd0e42c844 // indirect
	github.com/sasha-s/go-deadlock v0.3.1 // indirect
	github.com/starius/api2 v0.2.8 // indirect
	github.com/starius/flock v0.0.0-20211126131212-41983f66ca4f // indirect
	github.com/stretchr/testify v1.8.2 // indirect
	github.com/syndtr/goleveldb v1.0.0 // indirect
	github.com/xtaci/smux v1.5.24 // indirect
	gitlab.com/NebulousLabs/demotemutex v0.0.0-20151003192217-235395f71c40 // indirect
	gitlab.com/NebulousLabs/encoding v0.0.0-20200604091946-456c3dc907fe // indirect
	gitlab.com/NebulousLabs/go-upnp v0.0.0-20211002182029-11da932010b6 // indirect
	gitlab.com/NebulousLabs/log v0.0.0-20210609172545-77f6775350e2 // indirect
	gitlab.com/NebulousLabs/monitor v0.0.0-20191205095550-2b0fd3e1012a // indirect
	gitlab.com/NebulousLabs/persist v0.0.0-20200605115618-007e5e23d877 // indirect
	gitlab.com/NebulousLabs/ratelimit v0.0.0-20200811080431-99b8f0768b2e // indirect
	gitlab.com/NebulousLabs/siamux v0.0.1 // indirect
	gitlab.com/NebulousLabs/threadgroup v0.0.0-20200608151952-38921fbef213 // indirect
	gitlab.com/scpcorp/merkletree v0.0.0-20220107002940-1145778ea123 // indirect
	gitlab.com/scpcorp/writeaheadlog v0.0.0-20200814111317-c404cb85e61f // indirect
	gitlab.com/zer0main/checkport v0.0.0-20211117123614-ea09614c7660 // indirect
	gitlab.com/zer0main/eventsourcing v0.0.0-20210911223220-4432c7e50e57 // indirect
	gitlab.com/zer0main/filestorage v0.0.0-20211220182308-d090285b251e // indirect
	go.etcd.io/bbolt v1.3.7 // indirect
	golang.org/x/crypto v0.9.0 // indirect
	golang.org/x/image v0.0.0-20220617043117-41969df76e82 // indirect
	golang.org/x/mod v0.10.0 // indirect
	golang.org/x/net v0.10.0 // indirect
	golang.org/x/sys v0.8.0 // indirect
	golang.org/x/text v0.9.0 // indirect
	golang.org/x/tools v0.9.1 // indirect
	google.golang.org/protobuf v1.30.0 // indirect
	gopkg.in/yaml.v3 v3.0.1 // indirect
)
